Assignment 1: Census Data Quality for Policy Decisions – Sihan Yu- MUSA 5080 Portfolio
…
# Calculate MOE percentage and reliability categories using mutate()
county_data = county_data %>%
  mutate(
    MOE_percentage = (Median_incomeM/Median_incomeE) * 100,
    reliability = case_when(
      MOE_percentage < 5 ~"High confidence",
      MOE_percentage < 10 & MOE_percentage >5 ~ "Moderate confidence",
      MOE_percentage >10 ~"Low confidence"
    ),
    unreliable_flag = if_else("MOE percentage" >10, TRUE, FALSE  )
 )
county_data

# A tibble: 62 × 9
   GEOID NAME           Median_incomeE Median_incomeM populationE populationM
   <chr> <chr>                   <dbl>          <dbl>       <dbl>       <dbl>
 1 36001 "Albany "               78829           2049      315041          NA
 2 36003 "Allegany "             58725           1965       47222          NA
 3 36005 "Bronx "                47036            890     1443229          NA
 4 36007 "Broome "               58317           1761      198365          NA
 5 36009 "Cattaraugus "          56889           1778       77000          NA
 6 36011 "Cayuga "               63227           2736       76171          NA
 7 36013 "Chautauqua "           54625           1754      127440          NA
 8 36015 "Chemung "              61358           2475       83584          NA
 9 36017 "Chenango "             61741           2526       47096          NA
10 36019 "Clinton "              67097           2802       79839          NA
# ℹ 52 more rows
# ℹ 3 more variables: MOE_percentage <dbl>, reliability <chr>,
#   unreliable_flag <lgl>
…
